Project 1: Exploratory Data Analysis
…
Joining/Merging

### Joined Data
Joined_Project <- Country_information %>% left_join(Sanitation)
Joined_Project %>% na.omit()

## # A tibble: 170 x 5
##    country             Region         SurfaceArea `Population(thousands)` access
##    <chr>               <chr>                <dbl>                   <dbl>  <dbl>
##  1 Afghanistan         SouthernAsia        652864                   35530   0.43
##  2 Albania             SouthernEurope       28748                    2930   0.98
##  3 Algeria             NorthernAfrica     2381741                   41318   0.88
##  4 Andorra             SouthernEurope         468                      77   1   
##  5 Angola              MiddleAfrica       1246700                   29784   0.5 
##  6 Antigua and Barbuda Caribbean              442                     102   0.88
##  7 Armenia             WesternAsia          29743                    2930   0.94
##  8 Australia           Oceania            7692060                   24451   1   
##  9 Austria             WesternEurope        83871                    8736   1   
## 10 Azerbaijan          WesternAsia          86600                    9828   0.93
## # … with 160 more rows

My data was already tidy so I will reshape it elsewhere. I chose to do a left join function because the common variable was country. It made sense to just combine all the data by doing a left join to keep that variable in tact in both sets and then add the extra access to sanitized water column on the side. To begin with, the Sanitation data set had 355 observations with 2 variables and the Country info data had 720 observations with 5 variables. I also then used the N/A emit function to make sure any rows with out values were excluded and this included 10 rows. Now there are 170 rows with 5 columns.

Wrangling

### Filter, Select, and Arrange Function
Joined_Project %>% filter(between(access, 0.9, 1))

## # A tibble: 88 x 5
##    country    Region         SurfaceArea `Population(thousands)` access
##    <chr>      <chr>                <dbl>                   <dbl>  <dbl>
##  1 Albania    SouthernEurope       28748                    2930   0.98
##  2 Andorra    SouthernEurope         468                      77   1   
##  3 Armenia    WesternAsia          29743                    2930   0.94
##  4 Australia  Oceania            7692060                   24451   1   
##  5 Austria    WesternEurope        83871                    8736   1   
##  6 Azerbaijan WesternAsia          86600                    9828   0.93
##  7 Bahamas    Caribbean            13940                     395   0.95
##  8 Bahrain    WesternAsia            771                    1493   1   
##  9 Barbados   Caribbean              431                     286   0.97
## 10 Belarus    EasternEurope       207600                    9468   0.98
## # … with 78 more rows
…
##                       SurfaceArea Population(thousands)      access
## SurfaceArea             1.0000000            0.52789336  0.02933050
## Population(thousands)   0.5278934            1.00000000 -0.03433209
## access                  0.0293305           -0.03433209  1.00000000

In this case, the select function was used. This allowed me to create the correlation matrix of all of the numeric values in the joined data. Based off the matrix, it can be seen that surface area and access have barely any correlation. However, surface area and population are positively correlated a bit, meaning if the surface area increases there is an increase in population. Lastly there seems to be no correlation between access and population. This is surprising as I would have expected a strong positive correlation. However, I will continue investigating the data to see if there are other trend present.

### Mutate Function
Joined_Project %>% mutate(access_pctile = ntile(access, 100)) %>% 
    na.omit()

## # A tibble: 170 x 6
##    country       Region     SurfaceArea `Population(thousa… access access_pctile
##    <chr>         <chr>            <dbl>               <dbl>  <dbl>         <int>
##  1 Afghanistan   SouthernA…      652864               35530   0.43            16
##  2 Albania       SouthernE…       28748                2930   0.98            57
##  3 Algeria       NorthernA…     2381741               41318   0.88            38
##  4 Andorra       SouthernE…         468                  77   1               74
##  5 Angola        MiddleAfr…     1246700               29784   0.5             20
##  6 Antigua and … Caribbean          442                 102   0.88            38
##  7 Armenia       WesternAs…       29743                2930   0.94            49
##  8 Australia     Oceania        7692060               24451   1               75
##  9 Austria       WesternEu…       83871                8736   1               76
## 10 Azerbaijan    WesternAs…       86600                9828   0.93            46
## # … with 160 more rows
…
-I wanted to then see if different regions showed specific trends in terms of access. By performing the Pivot function on the data and viewing it wider I am able to see the mean access to sanitized water in each region without the other 3 variables. From this, Oceania, Central Asia, and Western Europe show some of the highest means. I did not perform a pivot longer function as this would not be an efficient way to view the data.

### Summary All Numeric variables
Joined_Project %>% summarize(SurfaceArea) %>% arrange(desc(SurfaceArea)) %>% 
    na.omit()

## # A tibble: 180 x 1
##    SurfaceArea
##          <dbl>
##  1    17098246
##  2     9984670
##  3     9833517
##  4     9600000
##  5     8515767
##  6     7692060
##  7     3287263
##  8     2780400
##  9     2724902
## 10     2381741
## # … with 170 more rows

Joined_Project %>% summarize(`Population(thousands)`) %>% arrange(desc(`Population(thousands)`)) %>% 
    na.omit()

## # A tibble: 180 x 1
##    `Population(thousands)`
##                      <dbl>
##  1                 1409517
##  2                 1339180
##  3                  324460
##  4                  263991
##  5                  209288
##  6                  197016
##  7                  190886
##  8                  164670
##  9                  143990
## 10                  129163
## # … with 170 more rows

Joined_Project %>% summarize(access) %>% arrange(desc(access)) %>% 
    na.omit()

## # A tibble: 170 x 1
##    access
##     <dbl>
##  1      1
##  2      1
##  3      1
##  4      1
##  5      1
##  6      1
##  7      1
##  8      1
##  9      1
## 10      1
## # … with 160 more rows

-I wanted to see an overview and summary of all the numeric variables by viewing them in descending view just to get a big picture idea. Below I will go in depth for the numeric variables in terms of the categories: Region and Country.

### Summarize: Group By Region
Joined_Project %>% group_by(Region) %>% summarize_if(is.numeric, 
    mean, na.rm = T)

## # A tibble: 22 x 4
##    Region         SurfaceArea `Population(thousands)` access
##    <chr>                <dbl>                   <dbl>  <dbl>
##  1 Caribbean           21833                   3846.   0.849
##  2 CentralAmerica     310820.                 22165.   0.834
##  3 CentralAsia        875008                  26191.   0.99 
##  4 EasternAfrica      311401.                 22262.   0.431
##  5 EasternAsia       2896242.                386453.   0.86 
##  6 EasternEurope     2088038.                 32045.   0.948
##  7 Melanesia          130549.                  2511    0.44 
##  8 Micronesia            424.                    60.5  0.772
##  9 MiddleAfrica       533502.                 10269.   0.391
## 10 NorthernAfrica     945000                  38842.   0.832
## # … with 12 more rows

Joined_Project %>% group_by(Region) %>% summarize_if(is.numeric, 
    sd, na.rm = T)

## # A tibble: 22 x 4
##    Region         SurfaceArea `Population(thousands)`  access
##    <chr>                <dbl>                   <dbl>   <dbl>
##  1 Caribbean           34623.                  5066.  0.192  
##  2 CentralAmerica     669399.                 43499.  0.103  
##  3 CentralAsia       1041631.                 26248.  0.00816
##  4 EasternAfrica      353229.                 27460.  0.288  
##  5 EasternAsia       4516572.                684507.  0.193  
##  6 EasternEurope     5631412.                 44255.  0.0611 
##  7 Melanesia          221635.                  3835.  0.354  
##  8 Micronesia            280.                    42.8 0.204  
##  9 MiddleAfrica       497087.                 11334.  0.192  
## 10 NorthernAfrica     933205.                 32452.  0.230  
## # … with 12 more rows

Joined_Project %>% group_by(Region) %>% summarize_if(is.numeric, 
    var, na.rm = T)

## # A tibble: 22 x 4
##    Region         SurfaceArea `Population(thousands)`    access
##    <chr>                <dbl>                   <dbl>     <dbl>
##  1 Caribbean          1.20e 9               25668157. 0.0367   
##  2 CentralAmerica     4.48e11             1892164103. 0.0105   
##  3 CentralAsia        1.08e12              688936196. 0.0000667
##  4 EasternAfrica      1.25e11              754067373. 0.0830   
##  5 EasternAsia        2.04e13           468549924049. 0.0374   
##  6 EasternEurope      3.17e13             1958498517. 0.00374  
##  7 Melanesia          4.91e10               14709617. 0.125    
##  8 Micronesia         7.85e 4                   1834. 0.0415   
##  9 MiddleAfrica       2.47e11              128449362. 0.0369   
## 10 NorthernAfrica     8.71e11             1053107234. 0.0530   
## # … with 12 more rows

Joined_Project %>% group_by(Region) %>% summarize_if(is.numeric, 
    min, na.rm = T)

## # A tibble: 22 x 4
##    Region         SurfaceArea `Population(thousands)` access
##    <chr>                <dbl>                   <dbl>  <dbl>
##  1 Caribbean              345                      74   0.35
##  2 CentralAmerica       21041                     375   0.65
##  3 CentralAsia         199949                    5758   0.98
##  4 EasternAfrica          457                      95   0.07
##  5 EasternAsia          42921                    3076   0.59
##  6 EasternEurope        49035                    5448   0.84
##  7 Melanesia            12189                     276   0.13
##  8 Micronesia              21                      11   0.48
##  9 MiddleAfrica           964                     204   0.08
## 10 NorthernAfrica         -99                    6375   0.37
## # … with 12 more rows

Joined_Project %>% group_by(Region) %>% summarize_if(is.numeric, 
    max, na.rm = T)

## # A tibble: 22 x 4
##    Region         SurfaceArea `Population(thousands)` access
##    <chr>                <dbl>                   <dbl>  <dbl>
##  1 Caribbean           109884                   11485   0.97
##  2 CentralAmerica     1964375                  129163   0.98
##  3 CentralAsia        2724902                   69038   1   
##  4 EasternAfrica      1104300                  104957   1   
##  5 EasternAsia        9600000                 1409517   1   
##  6 EasternEurope     17098246                  143990   0.99
##  7 Melanesia           462840                    8251   0.95
##  8 Micronesia             726                     116   1   
##  9 MiddleAfrica       1284000                   29784   0.66
## 10 NorthernAfrica     2381741                   97553   1   
## # … with 12 more rows

-I began to perform summary stats and grouped them by region. I used all 5 different functions within summarize in order to find more interesting information. This allows me to prove part of my hypothesis correct, because as expected less well developed regions such as Western Africa, Melanesia, and Middle Africa show the least access to sanitation. I found it interesting that Southern Africa and North America had some of the biggest standard deviations showing that countries in this region have very different values in terms of access to water.

### Summarize: Group By Country
Joined_Project %>% group_by(country) %>% summarize_if(is.numeric, 
    mean, na.rm = T) %>% arrange(desc(`Population(thousands)`)) %>% 
    na.omit()

## # A tibble: 170 x 4
##    country    SurfaceArea `Population(thousands)` access
##    <chr>            <dbl>                   <dbl>  <dbl>
##  1 China          9600000                 1409517   0.85
##  2 India          3287263                 1339180   0.6 
##  3 Indonesia      1910931                  263991   0.73
##  4 Brazil         8515767                  209288   0.88
##  5 Pakistan        796095                  197016   0.6 
##  6 Nigeria         923768                  190886   0.39
##  7 Bangladesh      147570                  164670   0.48
##  8 Mexico         1964375                  129163   0.91
##  9 Japan           377930                  127484   1   
## 10 Ethiopia       1104300                  104957   0.07
## # … with 160 more rows
…
