Project 2: Modeling, Testing, and Predicting
…
winequality <- read_csv('/stor/home/sm44452/Project/winequality.csv')
winequalityN <- read_csv('/stor/home/sm44452/Project/winequalityN.csv')

library(lmtest)
library(sandwich)
library(plotROC)
library(tidyverse)
library(MASS)
library(glmnet)
library(ggplot2)

winequality %>% na.omit()

## # A tibble: 6,469 x 9
## type volatile_acidity citric_acid residual_sugar
chlorides density pH sulphates alcohol
## <chr> <dbl> <dbl> <dbl> <dbl> <dbl> <dbl> <dbl> <dbl>
## 1 white 0.27 0.36 20.7 0.045 1.00 3 0.45 8.8
## 2 white 0.3 0.34 1.6 0.049 0.994 3.3 0.49 9.5
## 3 white 0.28 0.4 6.9 0.05 0.995 3.26 0.44 10.1
## 4 white 0.23 0.32 8.5 0.058 0.996 3.19 0.4 9.9
## 5 white 0.23 0.32 8.5 0.058 0.996 3.19 0.4 9.9
## 6 white 0.28 0.4 6.9 0.05 0.995 3.26 0.44 10.1
## 7 white 0.32 0.16 7 0.045 0.995 3.18 0.47 9.6
## 8 white 0.27 0.36 20.7 0.045 1.00 3 0.45 8.8
## 9 white 0.3 0.34 1.6 0.049 0.994 3.3 0.49 9.5
## 10 white 0.22 0.43 1.5 0.044 0.994 3.22 0.45 11
## # … with 6,459 more rows
…
